++++++++++++++++++++++++++++++++++++++++++++++++++++++++++++++++++++++++++++++++++++++++++++++++++++++++++++++++
                                        1.(L,n,m,r) = (1, 10, all, 10)
++++++++++++++++++++++++++++++++++++++++++++++++++++++++++++++++++++++++++++++++++++++++++++++++++++++++++++++++

==================================
('Training time:', 9.521871089935303, 'sec')
==================================
('Classification Uncertainty:', 0.9574078063945175)
==================================
('Probability mass function:', {36.0: 0.0001, 40.0: 0.0001, 15.0: 0.2375, 16.0: 0.7101, 17.0: 0.0338, 18.0: 0.0017, 19.0: 0.0013, 20.0: 0.0003, 21.0: 0.0023, 22.0: 0.0111, 23.0: 0.0008, 24.0: 0.0005, 27.0: 0.0001, 28.0: 0.0001, 157.0: 0.0001, 30.0: 0.0001})
==================================
('Time for classification results:', 0.0725100040435791, 'sec')
('Average time for single image classification:', 7.25100040435791e-06)
==================================
Precision , Recall, F1 score Metrics
/usr/local/lib/python2.7/dist-packages/sklearn/metrics/classification.py:1135: UndefinedMetricWarning: Precision and F-score are ill-defined and being set to 0.0 in labels with no predicted samples.
  'precision', 'predicted', average, warn_for)
             precision    recall  f1-score   support

          0       0.83      0.66      0.74      1000
          1       0.00      0.00      0.00      1000
          2       0.00      0.00      0.00      1000
          3       0.00      0.00      0.00      1000
          4       0.13      1.00      0.23      1000
          5       0.99      0.78      0.87      1000
          6       0.36      0.04      0.07      1000
          7       0.90      0.72      0.80      1000
          8       0.00      0.00      0.00      1000
          9       0.00      0.00      0.00      1000

avg / total       0.32      0.32      0.27     10000

==================================
('Classification Accuracy:', 0.3198)
==================================


++++++++++++++++++++++++++++++++++++++++++++++++++++++++++++++++++++++++++++++++++++++++++++++++++++++++++++++++
                                        2.(L,n,m,r) = (1, 10, all, 100)
++++++++++++++++++++++++++++++++++++++++++++++++++++++++++++++++++++++++++++++++++++++++++++++++++++++++++++++++

==================================
('Training time:', 74.76497101783752, 'sec')
==================================
('Classification Uncertainty:', 0.15802490008568013)
==================================
('Probability mass function:', {15.0: 0.9529, 16.0: 0.0378, 17.0: 0.0065, 18.0: 0.0006, 19.0: 0.0015, 20.0: 0.0003, 21.0: 0.0003, 24.0: 0.0001})
==================================
('Time for classification results:', 0.07230305671691895, 'sec')
('Average time for single image classification:', 7.230305671691895e-06)
==================================
Precision , Recall, F1 score Metrics
             precision    recall  f1-score   support

          0       0.80      0.66      0.72      1000
          1       0.90      0.95      0.92      1000
          2       0.70      0.45      0.55      1000
          3       0.76      0.78      0.77      1000
          4       0.53      0.81      0.64      1000
          5       0.95      0.93      0.94      1000
          6       0.38      0.35      0.37      1000
          7       0.93      0.95      0.94      1000
          8       0.90      0.92      0.91      1000
          9       0.94      0.94      0.94      1000

avg / total       0.78      0.77      0.77     10000

==================================
('Classification Accuracy:', 0.7735)
==================================


++++++++++++++++++++++++++++++++++++++++++++++++++++++++++++++++++++++++++++++++++++++++++++++++++++++++++++++++
                                        3.(L,n,m,r) = (1, 10, 500, 10)
++++++++++++++++++++++++++++++++++++++++++++++++++++++++++++++++++++++++++++++++++++++++++++++++++++++++++++++++

==================================
('Training time:', 0.0980830192565918, 'sec')
==================================
('Classification Uncertainty:', 0.9078916532399774)
==================================
('Probability mass function:', {15.0: 0.76, 16.0: 0.064, 17.0: 0.092, 18.0: 0.02, 19.0: 0.02, 21.0: 0.004, 22.0: 0.004, 24.0: 0.004, 25.0: 0.008, 26.0: 0.02, 30.0: 0.004})
==================================
('Time for classification results:', 0.0012679100036621094, 'sec')
('Average time for single image classification:', 5.071640014648437e-06)
==================================
Precision , Recall, F1 score Metrics
/usr/local/lib/python2.7/dist-packages/sklearn/metrics/classification.py:1135: UndefinedMetricWarning: Precision and F-score are ill-defined and being set to 0.0 in labels with no predicted samples.
  'precision', 'predicted', average, warn_for)
             precision    recall  f1-score   support

          0       0.00      0.00      0.00        25
          1       0.00      0.00      0.00        32
          2       0.00      0.00      0.00        36
          3       0.50      0.06      0.10        18
          4       0.00      0.00      0.00        27
          5       0.00      0.00      0.00        19
          6       0.00      0.00      0.00        21
          7       1.00      0.04      0.07        26
          8       0.00      0.00      0.00        23
          9       0.10      1.00      0.17        23

avg / total       0.15      0.10      0.03       250

==================================
('Classification Accuracy:', 0.1)
==================================


++++++++++++++++++++++++++++++++++++++++++++++++++++++++++++++++++++++++++++++++++++++++++++++++++++++++++++++++
                                        4.(L,n,m,r) = (1, 10, 500, 344)
++++++++++++++++++++++++++++++++++++++++++++++++++++++++++++++++++++++++++++++++++++++++++++++++++++++++++++++++

==================================
('Training time:', 2.748966932296753, 'sec')
==================================
('Classification Uncertainty:', 0.6412494501220715)
==================================
('Probability mass function:', {15.0: 0.756, 16.0: 0.096, 17.0: 0.044, 18.0: 0.016, 19.0: 0.02, 20.0: 0.02, 21.0: 0.008, 22.0: 0.008, 23.0: 0.004, 24.0: 0.008, 25.0: 0.008, 26.0: 0.004, 28.0: 0.004, 30.0: 0.004})
==================================
('Time for classification results:', 0.0013010501861572266, 'sec')
('Average time for single image classification:', 5.204200744628906e-06)
==================================
Precision , Recall, F1 score Metrics
/usr/local/lib/python2.7/dist-packages/sklearn/metrics/classification.py:1135: UndefinedMetricWarning: Precision and F-score are ill-defined and being set to 0.0 in labels with no predicted samples.
  'precision', 'predicted', average, warn_for)
             precision    recall  f1-score   support

          0       0.00      0.00      0.00        25
          1       0.13      1.00      0.24        32
          2       0.00      0.00      0.00        36
          3       0.00      0.00      0.00        18
          4       0.00      0.00      0.00        27
          5       0.75      0.16      0.26        19
          6       0.00      0.00      0.00        21
          7       1.00      0.04      0.07        26
          8       0.00      0.00      0.00        23
          9       0.20      0.04      0.07        23

avg / total       0.20      0.15      0.06       250

==================================
('Classification Accuracy:', 0.148)
==================================


++++++++++++++++++++++++++++++++++++++++++++++++++++++++++++++++++++++++++++++++++++++++++++++++++++++++++++++++
                                        5.(L,n,m,r) = (1, 10, 5000, 10)
++++++++++++++++++++++++++++++++++++++++++++++++++++++++++++++++++++++++++++++++++++++++++++++++++++++++++++++++

==================================
('Training time:', 0.7899529933929443, 'sec')
==================================
('Classification Uncertainty:', 0.990136484798376)
==================================
('Probability mass function:', {15.0: 0.834, 16.0: 0.09, 17.0: 0.024, 18.0: 0.011, 19.0: 0.004, 20.0: 0.002, 21.0: 0.005, 22.0: 0.002, 23.0: 0.001, 24.0: 0.002, 25.0: 0.009, 26.0: 0.011, 27.0: 0.002, 28.0: 0.002, 29.0: 0.001})
==================================
('Time for classification results:', 0.005398988723754883, 'sec')
('Average time for single image classification:', 5.398988723754883e-06)
==================================
Precision , Recall, F1 score Metrics
/usr/local/lib/python2.7/dist-packages/sklearn/metrics/classification.py:1135: UndefinedMetricWarning: Precision and F-score are ill-defined and being set to 0.0 in labels with no predicted samples.
  'precision', 'predicted', average, warn_for)
             precision    recall  f1-score   support

          0       0.00      0.00      0.00       107
          1       0.00      0.00      0.00       105
          2       0.00      0.00      0.00       111
          3       1.00      0.01      0.02        93
          4       0.00      0.00      0.00       115
          5       1.00      0.03      0.07        87
          6       0.00      0.00      0.00        97
          7       0.00      0.00      0.00        95
          8       0.00      0.00      0.00        95
          9       0.10      1.00      0.18        95

avg / total       0.19      0.10      0.02      1000

==================================
('Classification Accuracy:', 0.099)
==================================


++++++++++++++++++++++++++++++++++++++++++++++++++++++++++++++++++++++++++++++++++++++++++++++++++++++++++++++++
                                        6.(L,n,m,r) = (1, 10, 5000, 100)
++++++++++++++++++++++++++++++++++++++++++++++++++++++++++++++++++++++++++++++++++++++++++++++++++++++++++++++++

==================================
('Training time:', 3.9696290493011475, 'sec')
==================================
('Classification Uncertainty:', 0.9939263615208099)
==================================
('Probability mass function:', {15.0: 0.885, 16.0: 0.074, 17.0: 0.021, 18.0: 0.012, 19.0: 0.002, 20.0: 0.001, 21.0: 0.002, 24.0: 0.001, 25.0: 0.001, 26.0: 0.001})
==================================
('Time for classification results:', 0.004853010177612305, 'sec')
('Average time for single image classification:', 4.853010177612305e-06)
==================================
Precision , Recall, F1 score Metrics
/usr/local/lib/python2.7/dist-packages/sklearn/metrics/classification.py:1135: UndefinedMetricWarning: Precision and F-score are ill-defined and being set to 0.0 in labels with no predicted samples.
  'precision', 'predicted', average, warn_for)
             precision    recall  f1-score   support

          0       0.00      0.00      0.00       107
          1       0.11      1.00      0.20       105
          2       0.00      0.00      0.00       111
          3       1.00      0.01      0.02        93
          4       0.00      0.00      0.00       115
          5       0.91      0.70      0.79        87
          6       0.00      0.00      0.00        97
          7       0.00      0.00      0.00        95
          8       0.00      0.00      0.00        95
          9       0.00      0.00      0.00        95

avg / total       0.18      0.17      0.09      1000

==================================
('Classification Accuracy:', 0.167)
==================================


++++++++++++++++++++++++++++++++++++++++++++++++++++++++++++++++++++++++++++++++++++++++++++++++++++++++++++++++
                                        7.(L,n,m,r) = (1, 100, all, 10)
++++++++++++++++++++++++++++++++++++++++++++++++++++++++++++++++++++++++++++++++++++++++++++++++++++++++++++++++

==================================
('Training time:', 33.78401708602905, 'sec')
==================================
('Classification Uncertainty:', 0.06518113379901042)
==================================
('Probability mass function:', {144.0: 0.0001, 146.0: 0.0001, 23.0: 0.305, 24.0: 0.6338, 25.0: 0.0413, 26.0: 0.0047, 27.0: 0.0021, 28.0: 0.0039, 29.0: 0.0029, 30.0: 0.0013, 31.0: 0.0005, 32.0: 0.0002, 33.0: 0.0003, 34.0: 0.0002, 35.0: 0.0001, 36.0: 0.0002, 37.0: 0.0002, 38.0: 0.0002, 295.0: 0.0001, 41.0: 0.0002, 42.0: 0.0001, 43.0: 0.0001, 44.0: 0.0002, 45.0: 0.0002, 46.0: 0.0001, 304.0: 0.0001, 50.0: 0.0002, 51.0: 0.0001, 308.0: 0.0001, 437.0: 0.0001, 56.0: 0.0001, 52.0: 0.0001, 62.0: 0.0001, 63.0: 0.0001, 68.0: 0.0001, 69.0: 0.0001, 70.0: 0.0001, 72.0: 0.0001, 74.0: 0.0001, 83.0: 0.0001, 486.0: 0.0001, 39.0: 0.0001, 120.0: 0.0001})
==================================
('Time for classification results:', 0.1597449779510498, 'sec')
('Average time for single image classification:', 1.5974497795104982e-05)
==================================
Precision , Recall, F1 score Metrics
             precision    recall  f1-score   support

          0       0.81      0.74      0.78      1000
          1       0.96      0.95      0.96      1000
          2       0.76      0.60      0.67      1000
          3       0.82      0.86      0.84      1000
          4       0.58      0.87      0.69      1000
          5       0.96      0.93      0.94      1000
          6       0.60      0.47      0.53      1000
          7       0.91      0.95      0.93      1000
          8       0.95      0.94      0.95      1000
          9       0.95      0.93      0.94      1000

avg / total       0.83      0.82      0.82     10000

==================================
('Classification Accuracy:', 0.8236)
==================================


++++++++++++++++++++++++++++++++++++++++++++++++++++++++++++++++++++++++++++++++++++++++++++++++++++++++++++++++
                                        8.(L,n,m,r) = (1, 100, all, 100)
++++++++++++++++++++++++++++++++++++++++++++++++++++++++++++++++++++++++++++++++++++++++++++++++++++++++++++++++

==================================
('Training time:', 153.4274878501892, 'sec')
==================================
('Classification Uncertainty:', 0.012982282527749)
==================================
('Probability mass function:', {23.0: 0.0042, 24.0: 0.904, 25.0: 0.0569, 26.0: 0.0043, 27.0: 0.0011, 28.0: 0.0008, 29.0: 0.0006, 30.0: 0.0034, 31.0: 0.0178, 32.0: 0.0028, 33.0: 0.0002, 34.0: 0.0002, 35.0: 0.0005, 36.0: 0.0002, 38.0: 0.0002, 41.0: 0.0003, 42.0: 0.0001, 173.0: 0.0001, 48.0: 0.0003, 50.0: 0.0001, 51.0: 0.0001, 312.0: 0.0001, 62.0: 0.0003, 288.0: 0.0001, 67.0: 0.0001, 75.0: 0.0001, 83.0: 0.0001, 84.0: 0.0001, 86.0: 0.0001, 88.0: 0.0001, 223.0: 0.0001, 226.0: 0.0001, 486.0: 0.0001, 243.0: 0.0002, 247.0: 0.0001, 253.0: 0.0001})
==================================
('Time for classification results:', 0.16033101081848145, 'sec')
('Average time for single image classification:', 1.6033101081848143e-05)
==================================
Precision , Recall, F1 score Metrics
             precision    recall  f1-score   support

          0       0.83      0.75      0.79      1000
          1       0.97      0.96      0.97      1000
          2       0.76      0.76      0.76      1000
          3       0.87      0.86      0.87      1000
          4       0.74      0.80      0.77      1000
          5       0.98      0.93      0.95      1000
          6       0.61      0.64      0.63      1000
          7       0.93      0.93      0.93      1000
          8       0.96      0.96      0.96      1000
          9       0.92      0.97      0.94      1000

avg / total       0.86      0.86      0.86     10000

==================================
('Classification Accuracy:', 0.8561)
==================================


++++++++++++++++++++++++++++++++++++++++++++++++++++++++++++++++++++++++++++++++++++++++++++++++++++++++++++++++
                                        9.(L,n,m,r) = (1, 100, 500, 10)
++++++++++++++++++++++++++++++++++++++++++++++++++++++++++++++++++++++++++++++++++++++++++++++++++++++++++++++++

==================================
('Training time:', 0.3339059352874756, 'sec')
==================================
('Classification Uncertainty:', 4.232671120747732e-14)
==================================
('Probability mass function:', {129.0: 0.01, 38.0: 0.01, 43.0: 0.02, 78.0: 0.01, 51.0: 0.01, 180.0: 0.01, 24.0: 0.01, 25.0: 0.73, 26.0: 0.06, 27.0: 0.08, 28.0: 0.01, 29.0: 0.03, 30.0: 0.01})
==================================
('Time for classification results:', 0.0016009807586669922, 'sec')
('Average time for single image classification:', 1.6009807586669923e-05)
==================================
Precision , Recall, F1 score Metrics
             precision    recall  f1-score   support

          0       0.88      0.88      0.88         8
          1       1.00      1.00      1.00        13
          2       0.55      0.43      0.48        14
          3       0.88      0.78      0.82         9
          4       0.39      0.70      0.50        10
          5       0.71      0.56      0.63         9
          6       0.80      0.50      0.62         8
          7       0.75      0.82      0.78        11
          8       0.83      0.83      0.83        12
          9       0.67      0.67      0.67         6

avg / total       0.74      0.72      0.72       100

==================================
('Classification Accuracy:', 0.72)
==================================


++++++++++++++++++++++++++++++++++++++++++++++++++++++++++++++++++++++++++++++++++++++++++++++++++++++++++++++++
                                        10.(L,n,m,r) = (1, 100, 500, 261)
++++++++++++++++++++++++++++++++++++++++++++++++++++++++++++++++++++++++++++++++++++++++++++++++++++++++++++++++

==================================
('Training time:', 8.57042407989502, 'sec')
==================================
('Classification Uncertainty:', 0.0025013831681233033)
==================================
('Probability mass function:', {33.0: 0.01, 34.0: 0.01, 223.0: 0.01, 84.0: 0.01, 438.0: 0.01, 25.0: 0.1, 24.0: 0.72, 57.0: 0.01, 26.0: 0.05, 27.0: 0.02, 29.0: 0.03, 30.0: 0.01, 31.0: 0.01})
==================================
('Time for classification results:', 0.0015370845794677734, 'sec')
('Average time for single image classification:', 1.5370845794677734e-05)
==================================
Precision , Recall, F1 score Metrics
             precision    recall  f1-score   support

          0       0.86      0.75      0.80         8
          1       1.00      1.00      1.00        13
          2       0.56      0.71      0.63        14
          3       0.88      0.78      0.82         9
          4       0.58      0.70      0.64        10
          5       0.71      0.56      0.63         9
          6       0.50      0.38      0.43         8
          7       0.73      0.73      0.73        11
          8       0.75      0.75      0.75        12
          9       0.67      0.67      0.67         6

avg / total       0.73      0.72      0.72       100

==================================
('Classification Accuracy:', 0.72)
==================================


++++++++++++++++++++++++++++++++++++++++++++++++++++++++++++++++++++++++++++++++++++++++++++++++++++++++++++++++
                                        11.(L,n,m,r) = (1, 100, 5000, 10)
++++++++++++++++++++++++++++++++++++++++++++++++++++++++++++++++++++++++++++++++++++++++++++++++++++++++++++++++

==================================
('Training time:', 2.9912991523742676, 'sec')
==================================
('Classification Uncertainty:', 0.001342859592866365)
==================================
('Probability mass function:', {32.0: 0.006, 65.0: 0.001, 34.0: 0.001, 36.0: 0.003, 33.0: 0.001, 39.0: 0.001, 74.0: 0.001, 160.0: 0.001, 236.0: 0.001, 494.0: 0.001, 24.0: 0.823, 25.0: 0.103, 26.0: 0.028, 27.0: 0.007, 28.0: 0.004, 29.0: 0.008, 30.0: 0.005, 31.0: 0.005})
==================================
('Time for classification results:', 0.014241933822631836, 'sec')
('Average time for single image classification:', 1.4241933822631836e-05)
==================================
Precision , Recall, F1 score Metrics
             precision    recall  f1-score   support

          0       0.74      0.68      0.71       107
          1       0.93      0.94      0.93       105
          2       0.67      0.55      0.60       111
          3       0.76      0.73      0.75        93
          4       0.64      0.73      0.68       115
          5       0.84      0.83      0.83        87
          6       0.42      0.54      0.47        97
          7       0.91      0.91      0.91        95
          8       0.96      0.79      0.87        95
          9       0.86      0.92      0.89        95

avg / total       0.77      0.76      0.76      1000

==================================
('Classification Accuracy:', 0.757)
==================================


++++++++++++++++++++++++++++++++++++++++++++++++++++++++++++++++++++++++++++++++++++++++++++++++++++++++++++++++
                                        12.(L,n,m,r) = (1, 100, 5000, 100)
++++++++++++++++++++++++++++++++++++++++++++++++++++++++++++++++++++++++++++++++++++++++++++++++++++++++++++++++

==================================
('Training time:', 10.888935089111328, 'sec')
==================================
('Classification Uncertainty:', 0.008581984246860396)
==================================
('Probability mass function:', {32.0: 0.003, 33.0: 0.007, 34.0: 0.005, 35.0: 0.003, 36.0: 0.001, 69.0: 0.001, 64.0: 0.001, 73.0: 0.001, 87.0: 0.001, 663.0: 0.001, 27.0: 0.004, 23.0: 0.019, 24.0: 0.822, 25.0: 0.095, 26.0: 0.007, 251.0: 0.001, 28.0: 0.006, 29.0: 0.005, 30.0: 0.008, 31.0: 0.009})
==================================
('Time for classification results:', 0.015004873275756836, 'sec')
('Average time for single image classification:', 1.5004873275756836e-05)
==================================
Precision , Recall, F1 score Metrics
             precision    recall  f1-score   support

          0       0.79      0.70      0.74       107
          1       0.91      0.94      0.93       105
          2       0.63      0.67      0.65       111
          3       0.70      0.86      0.77        93
          4       0.78      0.65      0.71       115
          5       0.88      0.85      0.87        87
          6       0.52      0.57      0.54        97
          7       0.86      0.93      0.89        95
          8       0.96      0.82      0.89        95
          9       0.93      0.94      0.93        95

avg / total       0.79      0.79      0.79      1000

==================================
('Classification Accuracy:', 0.787)
==================================

